<?xml version="1.0" encoding="utf-8"?>
<!-- Generator: Adobe Illustrator 22.1.0, SVG Export Plug-In . SVG Version: 6.00 Build 0)  -->
<svg version="1.1" id="Слой_1" xmlns="http://www.w3.org/2000/svg" xmlns:xlink="http://www.w3.org/1999/xlink" x="0px" y="0px"
	 viewBox="0 0 7 28.7" style="enable-background:new 0 0 7 28.7;" xml:space="preserve">
<style type="text/css">
	.st0{fill:#B3DCFF;}
</style>
<g id="arrow_left">
	<polygon class="st0" points="5.2,28.7 0,15.6 0,13.2 5.2,0 7,0.7 2,13.6 2,15.2 7,28 	"/>
</g>
</svg>
