<svg xmlns="http://www.w3.org/2000/svg" width="105" height="6" viewBox="0 0 105 6">
  <metadata><?xpacket begin="﻿" id="W5M0MpCehiHzreSzNTczkc9d"?>
<x:xmpmeta xmlns:x="adobe:ns:meta/" x:xmptk="Adobe XMP Core 5.6-c142 79.160924, 2017/07/13-01:06:39        ">
   <rdf:RDF xmlns:rdf="http://www.w3.org/1999/02/22-rdf-syntax-ns#">
      <rdf:Description rdf:about=""/>
   </rdf:RDF>
</x:xmpmeta>
                                                                                                    
                                                                                                    
                                                                                                    
                                                                                                    
                                                                                                    
                                                                                                    
                                                                                                    
                                                                                                    
                                                                                                    
                                                                                                    
                                                                                                    
                                                                                                    
                                                                                                    
                                                                                                    
                                                                                                    
                                                                                                    
                                                                                                    
                                                                                                    
                                                                                                    
                                                                                                    
                           
<?xpacket end="w"?></metadata>
<defs>
    <style>
      .cls-1 {
        fill: #65fffd;
        fill-rule: evenodd;
      }
    </style>
  </defs>
  <path id="Hover_menu" class="cls-1" d="M1075.38,62.985h-0.98v4.307h-64.75V64.733H1009v4.256h0.65V68.2h103.7v0.786H1114V64.733h-0.65V65.62h-35.82Z" transform="translate(-1009 -63)"/>
</svg>
