<svg xmlns="http://www.w3.org/2000/svg" width="356" height="6" viewBox="0 0 356 6">
  <metadata><?xpacket begin="﻿" id="W5M0MpCehiHzreSzNTczkc9d"?>
<x:xmpmeta xmlns:x="adobe:ns:meta/" x:xmptk="Adobe XMP Core 5.6-c142 79.160924, 2017/07/13-01:06:39        ">
   <rdf:RDF xmlns:rdf="http://www.w3.org/1999/02/22-rdf-syntax-ns#">
      <rdf:Description rdf:about=""/>
   </rdf:RDF>
</x:xmpmeta>
                                                                                                    
                                                                                                    
                                                                                                    
                                                                                                    
                                                                                                    
                                                                                                    
                                                                                                    
                                                                                                    
                                                                                                    
                                                                                                    
                                                                                                    
                                                                                                    
                                                                                                    
                                                                                                    
                                                                                                    
                                                                                                    
                                                                                                    
                                                                                                    
                                                                                                    
                                                                                                    
                           
<?xpacket end="w"?></metadata>
<defs>
    <style>
      .cls-1 {
        fill: #65fffd;
        fill-rule: evenodd;
      }
    </style>
  </defs>
  <path id="Hover_mail" class="cls-1" d="M1250.38,939.985h-0.98v4.307H1125.65v-2.559H1125v4.256h0.65V945.2h354.7v0.785H1481v-4.256h-0.65v0.887H1252.53Z" transform="translate(-1125 -940)"/>
</svg>
