<svg version="1.1" xmlns="http://www.w3.org/2000/svg" xmlns:xlink="http://www.w3.org/1999/xlink" x="0px" y="0px"
	 viewBox="0 0 45.4 45.4" style="enable-background:new 0 0 45.4 45.4;" xml:space="preserve">
	<path d="M22.7,0C10.2,0,0,10.2,0,22.7s10.2,22.7,22.7,22.7c12.5,0,22.7-10.2,22.7-22.7S35.2,0,22.7,0z M38.8,24.3h3.3
		c-0.8,9.4-8.4,17.1-17.9,17.9v-3.3c0-0.9-0.7-1.6-1.6-1.6s-1.6,0.7-1.6,1.6v3.3C11.7,41.4,4,33.7,3.2,24.3h3.3
		c0.9,0,1.6-0.7,1.6-1.6c0-0.9-0.7-1.6-1.6-1.6H3.2C4,11.7,11.7,4,21.1,3.2v3.3c0,0.9,0.7,1.6,1.6,1.6s1.6-0.7,1.6-1.6V3.2
		c9.4,0.8,17.1,8.4,17.9,17.9h-3.3c-0.9,0-1.6,0.7-1.6,1.6C37.2,23.6,37.9,24.3,38.8,24.3z"/>
	<path d="M24.1,11.4c-0.3-0.6-0.8-0.9-1.4-0.9c-0.6,0-1.2,0.4-1.4,0.9l-3,6.8c-0.2,0.4-0.2,0.8,0,1.2
		c0.2,0.4,0.5,0.7,0.8,0.9c0.4,0.2,0.8,0.2,1.2,0c0.4-0.2,0.7-0.5,0.9-0.8l1.6-3.5l6,13.4l-5.4-2.1c-0.4-0.1-0.8-0.1-1.1,0l-5.4,2.1
		l1.5-3.3c0.2-0.4,0.2-0.8,0-1.2c-0.2-0.4-0.5-0.7-0.8-0.9c-0.4-0.2-0.8-0.2-1.2,0c-0.4,0.2-0.7,0.5-0.9,0.8l-3,6.8l0,0
		c-0.3,0.6-0.1,1.3,0.3,1.7c0.4,0.5,1.1,0.6,1.7,0.4l8.4-3.2l8.4,3.2l0,0c0.1,0,0.3,0.1,0.5,0.1c0.4,0,0.8-0.2,1.1-0.5l0,0
		c0.4-0.5,0.6-1.2,0.3-1.7L24.1,11.4z"/>
	<path d="M18.2,23.8c0.9,0,1.6-0.7,1.6-1.6c0-0.9-0.7-1.6-1.6-1.6c-0.9,0-1.6,0.7-1.6,1.6C16.6,23,17.3,23.8,18.2,23.8z
		"/>
</svg>
